running egg_info
writing build/starline_2022/starline_2022.egg-info/PKG-INFO
writing dependency_links to build/starline_2022/starline_2022.egg-info/dependency_links.txt
writing entry points to build/starline_2022/starline_2022.egg-info/entry_points.txt
writing requirements to build/starline_2022/starline_2022.egg-info/requires.txt
writing top-level names to build/starline_2022/starline_2022.egg-info/top_level.txt
reading manifest file 'build/starline_2022/starline_2022.egg-info/SOURCES.txt'
writing manifest file 'build/starline_2022/starline_2022.egg-info/SOURCES.txt'
running build
running build_py
running install
running install_lib
running install_data
copying launch/spawn_my_turtlebot3.launch.py -> /home/nikisim/ROS/starline_2022/install/starline_2022/share/starline_2022
copying world/labirint.world.sdf -> /home/nikisim/ROS/starline_2022/install/starline_2022/share/starline_2022
running install_egg_info
removing '/home/nikisim/ROS/starline_2022/install/starline_2022/lib/python3.8/site-packages/starline_2022-0.0.0-py3.8.egg-info' (and everything under it)
Copying build/starline_2022/starline_2022.egg-info to /home/nikisim/ROS/starline_2022/install/starline_2022/lib/python3.8/site-packages/starline_2022-0.0.0-py3.8.egg-info
running install_scripts
writing list of installed files to '/home/nikisim/ROS/starline_2022/build/starline_2022/install.log'
